Capstone Project, Elements of AI 2026
…
## Warning: There were 119 warnings in `summarise()`.
## The first warning was:
## ℹ In argument: `across(...)`.
## Caused by warning in `var()`:
## ! NAs introduced by coercion
## ℹ Run `dplyr::last_dplyr_warnings()` to see the 118 remaining warnings.

## # A tibble: 172 × 6
##    variable        class     missing n_unique     n   variance
##    <chr>           <chr>       <int>    <int> <int>      <dbl>
##  1 ResponseId      numeric         0    49191 49191 201650306 
##  2 MainBranch      character       0        6 49191        NA 
##  3 Age             character       0        7 49191        NA 
##  4 EdLevel         character    1042        8 48149        NA 
##  5 Employment      character     852        6 48339        NA 
##  6 EmploymentAddl  character    4316      171 44875        NA 
##  7 WorkExp         numeric      6298       72 42893       117.
##  8 LearnCodeChoose character    2333        3 46858        NA 
##  9 LearnCode       character   15635     2767 33556        NA 
## 10 LearnCodeAI     character    3990        5 45201        NA 
## # ℹ 162 more rows
…
set.seed(142)
data_split <- initial_split(data_cleaned, prop = .8)

lr_spec <- linear_reg(engine = "lm")
lr_metrics <- metric_set(rmse, mae, rsq)

workflow() %>%
    add_recipe(lr_recipe) %>%
    add_model(lr_spec) %>%
    last_fit(data_split, metrics = lr_metrics) -> lm_fit_result

lm_fit_result %>% extract_workflow() %>% tidy(conf.int = TRUE) %>%
    arrange(p.value)

## # A tibble: 68 × 7
##    term                estimate std.error statistic   p.value conf.low conf.high
##    <chr>                  <dbl>     <dbl>     <dbl>     <dbl>    <dbl>     <dbl>
##  1 Country_United.Sta…   47066.    1167.       40.3 0           44779.    49353.
##  2 WorkExp                1327.      38.4      34.6 3.03e-253    1252.     1403.
##  3 Country_India        -61591.    1810.      -34.0 1.67e-245  -65138.   -58043.
##  4 Country_Other        -34373.    1145.      -30.0 6.31e-193  -36617.   -32128.
##  5 Country_Ukraine      -61439.    2210.      -27.8 2.51e-166  -65771.   -57107.
##  6 Country_Brazil       -55684.    2232.      -25.0 5.68e-135  -60058.   -51310.
##  7 DevType_Engineerin…   52135.    2433.       21.4 1.56e-100   47366.    56904.
##  8 OrgSize                3503.     170.       20.6 5.66e- 93    3169.     3837.
##  9 DevType_Backend       31994.    1795.       17.8 2.10e- 70   28475.    35513.
## 10 DevType_Executive     59214.    3339.       17.7 9.48e- 70   52670.    65758.
## # ℹ 58 more rows
…
